{
    "KPlugin": {
        "Description": "Landing page with some basic settings",
        "Description[ar]": "يحمل الصفحة ببعض الإعدادات الأساسية",
        "Description[az]": "Bəzi əsas ayarlara sahib açılış səhifəsi",
        "Description[ca@valencia]": "Pàgina d'arribada amb diverses opcions bàsiques",
        "Description[ca]": "Pàgina d'arribada amb diverses opcions bàsiques",
        "Description[cs]": "Úvodní stránka se základním nastavením",
        "Description[de]": "Startseite mit einigen Grundeinstellungen",
        "Description[en_GB]": "Landing page with some basic settings",
        "Description[es]": "Página de entrada con algunas preferencias básicas",
        "Description[eu]": "Iritsiera orria oinarrizko ezarpen batzuekin",
        "Description[fi]": "Aloitussivu, jolla voi asettaa joitakin perusasetuksia",
        "Description[fr]": "Page d'accueil avec certains paramétrage basiques",
        "Description[hu]": "Kezdőoldal néhány alapvető beállítással",
        "Description[ia]": "Pagina de atterrage con alcun preferentias basic",
        "Description[id]": "Halaman arahan dengan beberapa pengaturan dasar",
        "Description[it]": "Pagina di approdo con alcune impostazioni di base",
        "Description[ko]": "일부 기본 설정이 있는 초기 페이지",
        "Description[lt]": "Puslapis su kai kuriomis pagrindinėmis nuostatomis",
        "Description[nl]": "Landingspagina met enige basisinstellingen",
        "Description[nn]": "Startside med grunnleggjande innstillingar",
        "Description[pa]": "ਕੁਝ ਮੁੱਢਲੀਆਂ ਸੈਟਿੰਗਾਂ ਨਾਲ ਸ਼ੁਰੂਆਤੀ ਸਫ਼ਾ",
        "Description[pl]": "Strona lądowania z kilkoma ustawieniami podstawowymi",
        "Description[pt]": "Página inicial com algumas configurações básicas",
        "Description[pt_BR]": "Página inicial com algumas configurações básicas",
        "Description[ro]": "Pagină de destinație cu câteva configurări simple",
        "Description[ru]": "Начальная страница с некоторыми основными настройками",
        "Description[sk]": "Úvodná stránka s niekoľkými základnými nastaveniami",
        "Description[sl]": "Pristajalna stran z nekaj osnovnimi nastavitvami",
        "Description[sv]": "Startsida med några grundinställningar",
        "Description[ta]": "சில அடிப்படையான விருப்பத்தேர்வுகளைக் கொண்ட முகப்புப் பக்கம்",
        "Description[tr]": "Açılış sayfası ve bazı temel ayarlar",
        "Description[uk]": "Початкова сторінка із базовими параметрами",
        "Description[vi]": "Trang mở đầu với một số thiết lập cơ bản",
        "Description[x-test]": "xxLanding page with some basic settingsxx",
        "Description[zh_CN]": "显示一部分基本设置的主页面",
        "Icon": "preferences-desktop",
        "Name": "Quick Settings",
        "Name[ar]": "إعدادات سريعة",
        "Name[az]": "Cəld ayarları",
        "Name[ca@valencia]": "Opcions ràpides",
        "Name[ca]": "Opcions ràpides",
        "Name[cs]": "Rychlé nastavení",
        "Name[de]": "Schnelleinstellungen",
        "Name[en_GB]": "Quick Settings",
        "Name[es]": "Preferencias rápidas",
        "Name[eu]": "Ezarpen azkarrak",
        "Name[fi]": "Pika-asetukset",
        "Name[fr]": "Paramétrage rapide",
        "Name[hu]": "Gyorsbeállítások",
        "Name[ia]": "Preferentias rapide",
        "Name[id]": "Pengaturan Cepat",
        "Name[it]": "Impostazioni rapide",
        "Name[ko]": "빠른 설정",
        "Name[lt]": "Sparčiosios nuostatos",
        "Name[nl]": "Snelle instellingen",
        "Name[nn]": "Snøgginnstillingar",
        "Name[pa]": "ਫ਼ੌਰੀ ਸੈਟਿੰਗਾਂ",
        "Name[pl]": "Szybkie ustawienia",
        "Name[pt]": "Configurações Rápidas",
        "Name[pt_BR]": "Configurações rápidas",
        "Name[ro]": "Configurări rapide",
        "Name[ru]": "Быстрая настройка",
        "Name[sk]": "Rýchle nastavenia",
        "Name[sl]": "Hitre nastavitve",
        "Name[sv]": "Snabbinställningar",
        "Name[ta]": "எளிய விருப்பத்தேர்வுகள்",
        "Name[tg]": "Танзимоти фаврӣ",
        "Name[tr]": "Hızlı Ayarlar",
        "Name[uk]": "Швидке налаштовування",
        "Name[vi]": "Thiết lập nhanh",
        "Name[x-test]": "xxQuick Settingsxx",
        "Name[zh_CN]": "快速设置",
        "Name[zh_TW]": "快速設定"
    },
    "X-DocPath": "kcontrol/landingpage/index.html",
    "X-KDE-System-Settings-Parent-Category": "rootcategory",
    "X-KDE-Weight": 40
}
