{
    "KPlugin": {
        "Authors": [
            {
                "Email": "hein@kde.org",
                "Name": "Eike Hein",
                "Name[ar]": "Eike Hein",
                "Name[az]": "Eike Hein",
                "Name[ca@valencia]": "Eike Hein",
                "Name[ca]": "Eike Hein",
                "Name[cs]": "Eike Hein",
                "Name[de]": "Eike Hein",
                "Name[en_GB]": "Eike Hein",
                "Name[es]": "Eike Hein",
                "Name[eu]": "Eike Hein",
                "Name[fi]": "Eike Hein",
                "Name[fr]": "Eike Hein",
                "Name[hu]": "Eike Hein",
                "Name[ia]": "Eike Hein",
                "Name[id]": "Eike Hein",
                "Name[it]": "Eike Hein",
                "Name[ko]": "Eike Hein",
                "Name[lt]": "Eike Hein",
                "Name[nl]": "Eike Hein",
                "Name[nn]": "Eike Hein",
                "Name[pa]": "ਇਕੀ ਹੀਇਨ",
                "Name[pl]": "Eike Hein",
                "Name[pt]": "Eike Hein",
                "Name[pt_BR]": "Eike Hein",
                "Name[ro]": "Eike Hein",
                "Name[ru]": "Eike Hein",
                "Name[sk]": "Eike Hein",
                "Name[sl]": "Eike Hein",
                "Name[sv]": "Eike Hein",
                "Name[ta]": "எய்கே ஹைன்",
                "Name[tr]": "Eike Hein",
                "Name[uk]": "Eike Hein",
                "Name[vi]": "Eike Hein",
                "Name[x-test]": "xxEike Heinxx",
                "Name[zh_CN]": "Eike Hein"
            }
        ],
        "Category": "Windows and Tasks",
        "Description": "Show open windows in a menu",
        "Description[ar]": "اعرض النوافذ المفتوحة في قائمة",
        "Description[az]": "Pəncərə açımasını menyuda göstərmək",
        "Description[ca@valencia]": "Mostra les finestres obertes en un menú",
        "Description[ca]": "Mostra les finestres obertes en un menú",
        "Description[en_GB]": "Show open windows in a menu",
        "Description[es]": "Mostrar las ventanas abiertas en un menú",
        "Description[fi]": "Näytä valikossa avoimet ikkunat",
        "Description[fr]": "Afficher les fenêtre ouvertes dans un menu",
        "Description[ia]": "Monstra fenestras aperite in un menu",
        "Description[id]": "Tampilkan window yang dibuka dalam sebuah menu",
        "Description[it]": "Mostra le finestre aperte in un menu",
        "Description[ko]": "열린 창을 메뉴에 표시",
        "Description[nl]": "Open vensters in een menu tonen",
        "Description[pl]": "Pokaż otwarte okna w menu",
        "Description[pt]": "Mostrar as janelas abertas num menu",
        "Description[pt_BR]": "Mostrar janelas abertas em um menu",
        "Description[ro]": "Arată ferestrele deschise într-un meniu",
        "Description[sk]": "Zobrazenie otvorených okien v ponuke",
        "Description[sl]": "Prikaži odprta okna v meniju",
        "Description[sv]": "Visa öppna fönster i en meny",
        "Description[ta]": "திறக்கப்பட்டுள்ள சாளரங்களை ஓர் பட்டியில் காட்டும்",
        "Description[tr]": "Açık pencereleri bir menüde göster",
        "Description[uk]": "Показ відкритих вікон у меню",
        "Description[vi]": "Hiện danh sách các cửa sổ đang mở trong một trình đơn",
        "Description[x-test]": "xxShow open windows in a menuxx",
        "Description[zh_CN]": "在菜单中显示打开的窗口",
        "Icon": "preferences-system-windows",
        "Id": "org.kde.plasma.windowlist",
        "License": "GPL-2.0+",
        "Name": "Window list",
        "Name[ar]": "قائمة النّوافذ",
        "Name[ast]": "Llista de ventanes",
        "Name[az]": "Pəncərə siyahısı",
        "Name[bs]": "Lista prozora",
        "Name[ca@valencia]": "Llista de finestres",
        "Name[ca]": "Llista de finestres",
        "Name[cs]": "Seznam oken",
        "Name[da]": "Vinduesliste",
        "Name[de]": "Fensterliste",
        "Name[el]": "Λίστα παραθύρων",
        "Name[en_GB]": "Window list",
        "Name[eo]": "Fenestra listo",
        "Name[es]": "Lista de ventanas",
        "Name[et]": "Akende nimekiri",
        "Name[eu]": "Leiho-zerrenda",
        "Name[fi]": "Ikkunaluettelo",
        "Name[fr]": "Liste des fenêtres",
        "Name[gl]": "Lista de xanelas",
        "Name[he]": "רשימת חלונות",
        "Name[hu]": "Ablaklista",
        "Name[ia]": "Lista de fenestra",
        "Name[id]": "Senarai window",
        "Name[is]": "Gluggalisti",
        "Name[it]": "Elenco delle finestre",
        "Name[ja]": "ウィンドウ一覧",
        "Name[kk]": "Терезе тізімі",
        "Name[ko]": "창 목록",
        "Name[lt]": "Langų sąrašas",
        "Name[ml]": "ജാലകപട്ടിക",
        "Name[mr]": "चौकट यादी",
        "Name[nb]": "Vindusliste",
        "Name[nds]": "Finsterlist",
        "Name[nl]": "Vensterlijst",
        "Name[nn]": "Vindaugsliste",
        "Name[pa]": "ਵਿੰਡੋ ਲਿਸਟ",
        "Name[pl]": "Listowy przełącznik zadań",
        "Name[pt]": "Lista de janelas",
        "Name[pt_BR]": "Lista de janelas",
        "Name[ro]": "Lista ferestrelor",
        "Name[ru]": "Список окон",
        "Name[sk]": "Zoznam okien",
        "Name[sl]": "Seznam oken",
        "Name[sr@ijekavian]": "списак прозора",
        "Name[sr@ijekavianlatin]": "spisak prozora",
        "Name[sr@latin]": "spisak prozora",
        "Name[sr]": "списак прозора",
        "Name[sv]": "Fönsterlista",
        "Name[ta]": "சாளரப் பட்டியல்",
        "Name[tr]": "Pencere listesi",
        "Name[uk]": "Список вікон",
        "Name[vi]": "Danh sách cửa sổ",
        "Name[x-test]": "xxWindow listxx",
        "Name[zh_CN]": "窗口列表",
        "Name[zh_TW]": "視窗列表",
        "ServiceTypes": [
            "Plasma/Applet"
        ],
        "Version": "2.0",
        "Website": "https://kde.org/plasma-desktop"
    },
    "X-Plasma-API": "declarativeappletscript",
    "X-Plasma-MainScript": "ui/main.qml",
    "X-Plasma-Provides": [
        "org.kde.plasma.multitasking"
    ]
}
